{
    "version": 1,
    "disable_existing_loggers": false,
    "formatters": {
        "full": {
            "format": "%(asctime)s\t%(levelname)s\tproc:%(process)d - %(threadName)s(%(thread)d)\t%(name)s\t%(message)s"
        },
        "simple": {
            "format": "%(asctime)s\t%(levelname)s\t%(name)s\t%(message)s"
        }
    },
    "handlers": {
        "console": {
            "class": "logging.StreamHandler",
            "level": "DEBUG",
            "formatter": "simple",
            "stream": "ext://sys.stdout"
        },
        "info_file_handler": {
            "class": "logging.FileHandler",
            "level": "DEBUG",
            "filename": "mhousejdanalysis.log",
            "formatter": "full",
            "encoding": "utf8"
        }
    },
    "loggers": {},
    "root": {
        "level": "DEBUG",
        "handlers": [
            "console",
            "info_file_handler"
        ]
    }
}